<svg xmlns="http://www.w3.org/2000/svg" width="24" height="29.133" viewBox="0 0 24 29.133">
  <path id="bxs-report" d="M30,11.74,21,3H9A2.958,2.958,0,0,0,6,5.913V29.22a2.958,2.958,0,0,0,3,2.913H27a2.958,2.958,0,0,0,3-2.913ZM13.5,27.763h-3V14.653h3Zm6,0h-3v-8.74h3Zm6,0h-3v-4.37h3ZM21,13.2H19.5V5.913L27,13.2Z" transform="translate(-6 -3)" fill="#455060"/>
</svg>
